id,name,profession
0,Celestyna,singer
1,Marylou,worker
2,Cam,worker
3,Dorthy,doctor
4,Micheline,singer
5,Ida,teacher
6,Deirdre,worker
7,Kayla,worker
8,Anestassia,worker
9,Jaclyn,worker
10,Cathyleen,singer
11,Winifred,developer
12,Shaine,teacher
13,Dari,doctor
14,Cordi,firefighter
15,Roseline,teacher
16,Merrie,firefighter
17,Therine,singer
18,Nicoli,firefighter
19,Vita,singer
20,Cyb,police officer
21,Janey,teacher
22,Maurene,developer
23,Esmeralda,teacher
24,Gerrie,police officer
25,Deedee,developer
26,Hermione,singer
27,Nannie,worker
28,Mignon,developer
29,Ayn,firefighter
30,Alie,singer
31,Alex,firefighter
32,Ada,firefighter
33,Binny,teacher
34,Cyb,teacher
35,Iseabal,police officer
36,Marika,doctor
37,Eolanda,teacher
38,Flo,teacher
39,Cindelyn,doctor
40,Sidoney,worker
41,Elbertina,singer
42,Dulcinea,police officer
43,Beth,teacher
44,Nannie,doctor
45,Jeanna,teacher
46,Tani,singer
47,Therine,doctor
48,Gwenneth,worker
49,Jemie,police officer
50,Giustina,teacher
51,Cherilyn,firefighter
52,Suzette,teacher
53,Fidelia,firefighter
54,Zondra,police officer
55,Ida,worker
56,Misha,firefighter
57,Helsa,doctor
58,Abbie,firefighter
59,Kary,firefighter
60,Alejandra,doctor
61,Leia,singer
62,Selma,police officer
63,Maud,worker
64,Blinni,developer
65,Alyda,police officer
66,Lusa,developer
67,Annice,developer
68,Jany,teacher
69,Angelique,worker
70,Aigneis,doctor
71,Antonietta,worker
72,Maye,teacher
73,Ekaterina,singer
74,Amii,developer
75,Nanete,teacher
76,Sashenka,singer
77,Goldie,police officer
78,Minne,developer
79,Adore,worker
80,Nessie,developer
81,Brena,police officer
82,Stephanie,teacher
83,Jemie,doctor
84,Margalo,doctor
85,Ezmeralda,teacher
86,Emylee,worker
87,Moyna,worker
88,Bettine,police officer
89,Allis,worker
90,Hildegaard,developer
91,Alexine,firefighter
92,Sara-Ann,teacher
93,Elmira,developer
94,Lesly,developer
95,Linzy,doctor
96,Robinia,teacher
97,Minne,teacher
98,Blondelle,firefighter
99,Hannis,singer
100,Tomasina,doctor
101,Jinny,teacher
102,Nadine,developer
103,Adelle,teacher
104,Joceline,developer
105,Edee,teacher
106,Cissiee,firefighter
107,Amalie,developer
108,Barbara,worker
109,Orelia,police officer
110,Margarette,doctor
111,Peri,doctor
112,Carlie,teacher
113,Vinita,developer
114,Jere,worker
115,Aryn,police officer
116,Taffy,teacher
117,Aimil,doctor
118,Verla,teacher
119,Ernesta,police officer
120,Loree,worker
121,Agnese,teacher
122,Mary,developer
123,Kore,singer
124,Elie,singer
125,Sarette,teacher
126,Melina,police officer
127,Mellicent,teacher
128,Averyl,police officer
129,Marleah,singer
130,Frank,developer
131,Ida,developer
132,Asia,teacher
133,Sheelagh,teacher
134,Zaria,doctor
135,Juliane,teacher
136,Sallie,doctor
137,Angelique,police officer
138,Elka,firefighter
139,Gratia,firefighter
140,Sabina,worker
141,Glynnis,teacher
142,Alejandra,teacher
143,Mady,worker
144,Lanna,firefighter
145,Lita,teacher
146,Clo,developer
147,Nadine,firefighter
148,Sashenka,doctor
149,Odessa,worker
150,Arabel,firefighter
151,Michaelina,teacher
152,Catrina,singer
153,Jeanna,worker
154,Elena,worker
155,Winny,firefighter
156,Bobinette,police officer
157,Angela,teacher
158,Delilah,teacher
159,Gabriellia,developer
160,Alia,police officer
161,Bill,teacher
162,Asia,worker
163,Mamie,worker
164,Valeda,developer
165,Gale,police officer
166,Georgetta,developer
167,Starla,singer
168,Sheelagh,singer
169,Tamqrah,firefighter
170,Dianemarie,police officer
171,Dode,singer
172,Joane,doctor
173,Roxane,teacher
174,Lisette,developer
175,Etta,singer
176,Jacenta,singer
177,Libbie,firefighter
178,Gretal,police officer
179,Meghann,firefighter
180,Melisent,teacher
181,Aeriela,singer
182,Dagmar,teacher
183,Yetty,singer
184,Elmira,police officer
185,Sybille,teacher
186,Bill,firefighter
187,Tabbatha,police officer
188,Sue,singer
189,Anthia,police officer
190,Melanie,police officer
191,Micheline,worker
192,Elyssa,police officer
193,Hallie,singer
194,Juliane,singer
195,Willetta,worker
196,Dolli,worker
197,Margette,teacher
198,Dale,firefighter
199,Valeda,singer
200,Kaja,developer
201,Stephanie,doctor
202,Stephanie,singer
203,Nerta,firefighter
204,Maurene,teacher
205,Jillayne,teacher
206,Courtnay,firefighter
207,Mariann,singer
208,Sharai,worker
209,Cassandra,teacher
210,Claudina,worker
211,Sibella,police officer
212,Lizzie,singer
213,Demetris,police officer
214,Elyssa,firefighter
215,Yolane,police officer
216,Mireielle,firefighter
217,Trixi,doctor
218,Teriann,teacher
219,Dawn,developer
220,Konstance,singer
221,Meghann,police officer
222,Arabel,doctor
223,Addia,firefighter
224,Halette,doctor
225,Lolita,worker
226,Claudina,police officer
227,Karlee,police officer
228,Joleen,singer
229,Sonni,teacher
230,Lyssa,firefighter
231,Rayna,singer
232,Cathyleen,teacher
233,Lynnea,singer
234,Vanessa,teacher
235,Linzy,teacher
236,Dawn,doctor
237,Viviene,singer
238,Melisent,teacher
239,Kirstin,firefighter
240,Carilyn,police officer
241,Estell,firefighter
242,Janis,singer
243,Pollyanna,singer
244,Evita,firefighter
245,Delilah,police officer
246,Adriana,worker
247,Tani,worker
248,Katleen,doctor
249,Oralee,worker
250,Lilith,developer
251,Penelopa,developer
252,Ginnie,firefighter
253,Kathy,police officer
254,Carlie,worker
255,Annecorinne,developer
256,Lynnea,singer
257,Cassondra,firefighter
258,Alex,singer
259,Netty,teacher
260,Shandie,developer
261,Christian,worker
262,Britni,teacher
263,Cassandra,firefighter
264,Louella,singer
265,Carmela,doctor
266,Selma,teacher
267,Lanae,singer
268,Elsie,doctor
269,Shaine,firefighter
270,Berget,police officer
271,Korrie,teacher
272,Sonni,doctor
273,Moyna,firefighter
274,Max,teacher
275,Latisha,teacher
276,Melanie,worker
277,Jessamyn,worker
278,Angelique,developer
279,Ardeen,developer
280,Valera,teacher
281,Verla,singer
282,Meg,doctor
283,Renie,developer
284,Flo,worker
285,Annabela,doctor
286,Magdalena,firefighter
287,Kaia,firefighter
288,Juliane,developer
289,Evaleen,worker
290,Sophia,firefighter
291,Marika,doctor
292,Aurore,police officer
293,Mallory,firefighter
294,Gerrie,developer
295,Mary,police officer
296,Winifred,singer
297,Leona,worker
298,Ardys,singer
299,Diena,doctor
300,Brandise,firefighter
301,Alejandra,singer
302,Gabriellia,singer
303,Mellicent,developer
304,Margalo,police officer
305,Corene,police officer
306,Linzy,firefighter
307,Tabbatha,singer
308,Nariko,singer
309,Kara-Lynn,developer
310,Kalina,police officer
311,Selia,worker
312,Melisent,teacher
313,Candy,developer
314,Karly,police officer
315,Augustine,police officer
316,Moyna,firefighter
317,Latisha,police officer
318,Brooks,singer
319,Fred,doctor
320,Gilda,doctor
321,Fina,teacher
322,Fredericka,worker
323,Beverley,developer
324,Candy,developer
325,Hildegaard,worker
326,Annice,firefighter
327,Dolli,police officer
328,Marti,singer
329,Consuela,firefighter
330,Allis,police officer
331,Chastity,teacher
332,Linet,singer
333,Lanna,singer
334,Mary,police officer
335,Barbara,firefighter
336,Marinna,doctor
337,Katuscha,teacher
338,Josephine,developer
339,Kelly,worker
340,Teddie,teacher
341,Madalyn,firefighter
342,Annecorinne,singer
343,Farrah,worker
344,Alyda,developer
345,Meghann,teacher
346,Keelia,doctor
347,Nerta,singer
348,Christian,firefighter
349,Margette,firefighter
350,Coral,singer
351,Janeczka,police officer
352,Sadie,teacher
353,Lonnie,firefighter
354,Mara,singer
355,Anthia,worker
356,Tatiania,teacher
357,Nataline,worker
358,Aurelie,worker
359,Mary,developer
360,Cathyleen,doctor
361,Cristine,developer
362,Marcelline,doctor
363,Antonietta,doctor
364,Corina,firefighter
365,Tami,developer
366,Leontine,doctor
367,Cordi,worker
368,Estell,singer
369,Fidelia,singer
370,Sharai,police officer
371,Adele,police officer
372,Zaria,teacher
373,Felice,firefighter
374,Tori,worker
375,Mildrid,firefighter
376,Lonnie,developer
377,Belva,teacher
378,Daune,worker
379,Riannon,firefighter
380,Correy,teacher
381,Daphne,developer
382,Heddie,teacher
383,Concettina,firefighter
384,Dyann,singer
385,Katharina,developer
386,Justinn,doctor
387,Arabel,police officer
388,Coral,firefighter
389,Kirstin,singer
390,Alejandra,developer
391,Angela,teacher
392,Claresta,doctor
393,Damaris,teacher
394,Tani,doctor
395,Arabel,singer
396,Joelly,teacher
397,Rayna,doctor
398,Sashenka,worker
399,Marnia,teacher
400,Arlina,singer
401,Sam,firefighter
402,Merle,worker
403,Lenna,police officer
404,Joy,firefighter
405,Shandie,teacher
406,Tobe,developer
407,Tressa,developer
408,Ira,teacher
409,Ileana,developer
410,Lonnie,police officer
411,Kristan,firefighter
412,Mariann,developer
413,Kimberley,developer
414,Anica,developer
415,Hyacinthe,developer
416,Debee,teacher
417,Mariann,singer
418,Alejandra,firefighter
419,Chandra,police officer
420,Katleen,worker
421,Beverley,police officer
422,Correy,worker
423,Deedee,developer
424,Rozele,firefighter
425,Constance,firefighter
426,Daryl,police officer
427,Beverley,police officer
428,Max,worker
429,Xylina,worker
430,Jerry,singer
431,Rubie,singer
432,Amii,doctor
433,Nita,singer
434,Brandise,teacher
435,Lanae,singer
436,Lisette,singer
437,Sybille,doctor
438,Hermione,teacher
439,Vevay,teacher
440,Di,worker
441,Lorie,teacher
442,Betta,singer
443,Kary,firefighter
444,Caritta,teacher
445,Karolina,police officer
446,Carly,worker
447,Tracey,singer
448,Sherrie,worker
449,Rhoda,doctor
450,Helsa,worker
451,Dyann,police officer
452,Roberta,worker
453,Louella,singer
454,Stacey,teacher
455,Jaclyn,doctor
456,Micheline,singer
457,Nicoli,firefighter
458,Maye,teacher
459,Ebonee,singer
460,Sophia,singer
461,Vevay,doctor
462,Steffane,singer
463,Zaria,worker
464,Marylou,developer
465,Nelle,developer
466,Jorry,developer
467,Linzy,firefighter
468,Shauna,teacher
469,Karlee,developer
470,Emmey,firefighter
471,Verla,police officer
472,Clo,teacher
473,Lexine,doctor
474,Robinia,worker
475,Orsola,teacher
476,Maud,singer
477,Lory,singer
478,Nyssa,developer
479,Nelle,police officer
480,Lexine,developer
481,Angelique,doctor
482,Aili,teacher
483,Malina,worker
484,Sheelagh,doctor
485,Joleen,worker
486,Dorice,police officer
487,Katleen,singer
488,Rubie,developer
489,Hermione,singer
490,Debee,developer
491,Catrina,developer
492,Kassey,developer
493,Teddie,teacher
494,Regina,doctor
495,Marika,singer
496,Asia,developer
497,Joelly,teacher
498,Dania,teacher
499,Betta,police officer
500,Dagmar,singer
501,Lizzie,firefighter
502,Feliza,singer
503,Dawn,doctor
504,Bee,firefighter
505,Ariela,police officer
506,Norine,teacher
507,Susette,firefighter
508,Blondelle,doctor
509,Merci,doctor
510,Asia,police officer
511,Bettine,teacher
512,Madeleine,firefighter
513,Kathy,firefighter
514,Luci,doctor
515,Beatriz,police officer
516,Belva,police officer
517,Marylou,doctor
518,Lizzie,singer
519,Drucie,teacher
520,Linet,police officer
521,Kelly,singer
522,Teddie,worker
523,Drucie,worker
524,Quintina,worker
525,Arlena,police officer
526,Belva,firefighter
527,Rivalee,teacher
528,Arabel,police officer
529,Lynea,doctor
530,Lesly,police officer
531,Gwenneth,singer
532,Ivett,developer
533,Rani,doctor
534,Frank,firefighter
535,Bobbi,singer
536,Emmey,singer
537,Penelopa,police officer
538,Bobinette,developer
539,Shirlee,police officer
540,Raf,singer
541,Sheelagh,singer
542,Millie,police officer
543,Hope,police officer
544,Talya,doctor
545,Wanda,worker
546,Brana,doctor
547,Gerrie,police officer
548,Paola,worker
549,Ivett,firefighter
550,Sadie,police officer
551,Rhoda,worker
552,Delilah,doctor
553,Merry,singer
554,Dacia,worker
555,Christy,singer
556,Therine,worker
557,Stacey,developer
558,Peri,police officer
559,Cacilie,singer
560,Therine,singer
561,Wileen,doctor
562,Raquela,teacher
563,Minda,firefighter
564,Glenda,firefighter
565,Tomasina,teacher
566,Cathyleen,doctor
567,Sashenka,doctor
568,Raquela,singer
569,Wendi,teacher
570,Cherrita,singer
571,Susan,worker
572,Vivia,police officer
573,Winifred,developer
574,Frank,doctor
575,Corry,singer
576,Harmonia,worker
577,Bernie,firefighter
578,Mariann,police officer
579,Amara,worker
580,Janeczka,worker
581,Juliane,singer
582,Romona,developer
583,Michaelina,singer
584,Danny,singer
585,Lanna,singer
586,Katleen,singer
587,Mignon,singer
588,Kore,police officer
589,Madelle,singer
590,Tori,doctor
591,Merry,doctor
592,Berta,police officer
593,Phylis,teacher
594,Harmonia,developer
595,Gui,police officer
596,Lacie,developer
597,Pollyanna,singer
598,Babita,developer
599,Jessamyn,teacher
600,Merrie,teacher
601,Carolina,worker
602,Joleen,singer
603,Brandise,police officer
604,Carree,worker
605,Correy,doctor
606,Amii,worker
607,Robinia,worker
608,Ursulina,developer
609,Maisey,doctor
610,Nataline,firefighter
611,Janey,developer
612,Gloria,police officer
613,Mellicent,doctor
614,Carly,teacher
615,Melina,singer
616,Jemie,singer
617,Eolanda,teacher
618,Siana,teacher
619,Magdalena,doctor
620,Ricky,worker
621,Donetta,singer
622,Alexine,developer
623,Catharine,police officer
624,Juliane,worker
625,Glynnis,singer
626,Sue,doctor
627,Christian,doctor
628,Kellen,doctor
629,Netty,police officer
630,Alejandra,singer
631,Dione,developer
632,Jinny,firefighter
633,Ermengarde,teacher
634,Candy,worker
635,Inga,developer
636,Mara,police officer
637,Corina,developer
638,Kassey,doctor
639,Felice,doctor
640,Rosene,teacher
641,Lory,police officer
642,Millie,police officer
643,Fanchon,police officer
644,Alexine,teacher
645,Stevana,teacher
646,Annora,police officer
647,Helena,doctor
648,Lyssa,firefighter
649,Ebonee,police officer
650,Danny,teacher
651,Roxane,worker
652,Pollyanna,singer
653,Carree,police officer
654,Halette,firefighter
655,Arabel,singer
656,Lonnie,singer
657,Jan,police officer
658,Deloria,worker
659,Morganica,worker
660,Beth,police officer
661,Linzy,police officer
662,Babita,doctor
663,Nataline,doctor
664,Christy,teacher
665,Ardeen,singer
666,Dode,firefighter
667,Cristine,police officer
668,Riannon,singer
669,Heida,firefighter
670,Gerrie,teacher
671,Kaia,developer
672,Zsa Zsa,worker
673,Annaliese,doctor
674,Zondra,teacher
675,Margarette,police officer
676,Audrie,teacher
677,Jeanna,developer
678,Lolita,worker
679,Ida,worker
680,Robbi,doctor
681,Melodie,worker
682,Jere,doctor
683,Dacia,firefighter
684,Madeleine,teacher
685,Selma,doctor
686,Roz,teacher
687,Lexine,doctor
688,Nonnah,doctor
689,Kary,police officer
690,Anallese,singer
691,Korrie,teacher
692,Arabel,police officer
693,Karlee,singer
694,Shirlee,doctor
695,Siana,police officer
696,Carmela,developer
697,Grier,doctor
698,Rebeca,doctor
699,Valera,doctor
700,Devina,firefighter
701,Brynna,firefighter
702,Courtnay,police officer
703,Krystle,developer
704,Noelle,police officer
705,Giustina,firefighter
706,Annaliese,developer
707,Grier,worker
708,Chastity,teacher
709,Leona,firefighter
710,Joy,police officer
711,Mahalia,developer
712,Gusty,firefighter
713,Tera,developer
714,Elbertina,police officer
715,Winifred,teacher
716,Viviene,teacher
717,Edyth,teacher
718,Rebeca,teacher
719,Kristan,singer
720,Gui,doctor
721,Marleah,firefighter
722,Kamilah,worker
723,Cissiee,singer
724,Margarette,teacher
725,Evita,singer
726,Brynna,singer
727,Dagmar,worker
728,Deirdre,firefighter
729,Larine,worker
730,Bettine,police officer
731,Sherrie,firefighter
732,Neila,developer
733,Willetta,firefighter
734,Pearline,police officer
735,Barbi,developer
736,Donetta,doctor
737,Kore,teacher
738,Anica,worker
739,Sabina,teacher
740,Lizzie,teacher
741,Mignon,worker
742,Cristabel,worker
743,Gui,doctor
744,Gisela,developer
745,Gwenneth,developer
746,Lonnie,developer
747,Ingrid,teacher
748,Mellicent,firefighter
749,Lory,singer
750,Emmey,teacher
751,Tina,teacher
752,Dione,doctor
753,Jere,teacher
754,Mamie,police officer
755,Perry,developer
756,Kamilah,developer
757,Wileen,worker
758,Lacie,police officer
759,Marcy,worker
760,Modestia,police officer
761,Roxane,developer
762,Stacey,singer
763,Alie,worker
764,Kellen,developer
765,Lenna,worker
766,Lonnie,teacher
767,Cristabel,doctor
768,Leona,doctor
769,Jeanna,firefighter
770,Catrina,teacher
771,Gertrud,police officer
772,Betta,worker
773,Minda,teacher
774,Konstance,developer
775,Lisette,teacher
776,Jolyn,police officer
777,Elfreda,developer
778,Perry,teacher
779,Leontine,police officer
780,Nadine,developer
781,Tatiania,developer
782,Joelly,firefighter
783,Rhoda,developer
784,Claudina,firefighter
785,Brena,worker
786,Vonny,teacher
787,Angelique,singer
788,Cordi,teacher
789,Tamqrah,doctor
790,Addia,doctor
791,Dania,police officer
792,Clary,firefighter
793,Katharina,worker
794,Berget,singer
795,Lynde,doctor
796,Rosabelle,developer
797,Nannie,singer
798,Lily,worker
799,Teriann,singer
800,Jacenta,developer
801,Belinda,firefighter
802,Arlina,singer
803,Selia,teacher
804,Trixi,developer
805,Dorene,police officer
806,Sonni,teacher
807,Zondra,firefighter
808,Marleah,worker
809,Jennica,singer
810,Marleah,worker
811,Marika,worker
812,Sue,worker
813,Kirbee,worker
814,Ariela,doctor
815,Loree,developer
816,Felice,worker
817,Farrah,developer
818,Misha,firefighter
819,Sheree,worker
820,Hettie,singer
821,Daryl,developer
822,Coral,worker
823,Ida,doctor
824,Sashenka,teacher
825,Berget,developer
826,Anthia,police officer
827,Janis,developer
828,Tarra,teacher
829,Gale,worker
830,Kathy,firefighter
831,Hildegaard,developer
832,Coral,police officer
833,Clo,teacher
834,Zaria,firefighter
835,Diena,developer
836,Barbara,firefighter
837,Sonni,worker
838,Arabel,firefighter
839,Zondra,doctor
840,Corina,singer
841,Danika,singer
842,Nicoli,singer
843,Lesly,singer
844,Frances,singer
845,Glynnis,doctor
846,Rhoda,firefighter
847,Coral,police officer
848,Larine,doctor
849,Gilda,singer
850,Belinda,teacher
851,Ethel,singer
852,Perry,teacher
853,Neila,police officer
854,Jessamyn,singer
855,Keelia,worker
856,Judy,firefighter
857,Ketti,developer
858,Dyann,singer
859,Angelique,worker
860,Mellicent,teacher
861,Darci,developer
862,Marleah,worker
863,Maurene,developer
864,Gianina,firefighter
865,Kayla,worker
866,Kimberley,police officer
867,Imojean,worker
868,Alyssa,teacher
869,Elie,police officer
870,Aubrie,singer
871,Clarice,police officer
872,Netty,singer
873,Donetta,developer
874,Celestyna,singer
875,Talya,doctor
876,Katuscha,developer
877,Therine,firefighter
878,Gwyneth,police officer
879,Meg,worker
880,Adelle,worker
881,Maridel,firefighter
882,Jacquetta,doctor
883,Cindelyn,police officer
884,Paulita,singer
885,Tobe,firefighter
886,Merrie,worker
887,Gui,teacher
888,Marjie,doctor
889,Consuela,singer
890,Tressa,singer
891,Rosene,firefighter
892,Karina,police officer
893,Elena,teacher
894,Winifred,police officer
895,Hettie,doctor
896,Vevay,developer
897,Tonia,police officer
898,Ardys,singer
899,Lyssa,doctor
900,Silvana,teacher
901,Tilly,developer
902,Johna,teacher
903,Florencia,worker
904,Elora,police officer
905,Fawne,police officer
906,Nita,developer
907,Raquela,firefighter
908,Anallese,worker
909,Melina,singer
910,Adore,doctor
911,Gilda,firefighter
912,Kathy,firefighter
913,Rani,police officer
914,Lulita,worker
915,Brena,firefighter
916,Marinna,doctor
917,Lindie,police officer
918,Gilda,worker
919,Dorthy,police officer
920,Valeda,firefighter
921,Anica,worker
922,Flory,teacher
923,Kelly,police officer
924,Paola,singer
925,Anallese,developer
926,Shell,police officer
927,Clementine,doctor
928,Deedee,teacher
929,Collen,worker
930,Peri,police officer
931,Rani,firefighter
932,Meghann,developer
933,Rosanne,developer
934,Tonia,firefighter
935,Lindie,teacher
936,Loree,doctor
937,Leeanne,teacher
938,Catrina,developer
939,Cissiee,teacher
940,Shandie,police officer
941,Florie,worker
942,Donetta,police officer
943,Johna,worker
944,Lilith,teacher
945,Miquela,worker
946,Evaleen,singer
947,Rosene,teacher
948,Krystle,developer
949,Berget,firefighter
950,Gwenneth,singer
951,Linzy,worker
952,Nikki,teacher
953,Talya,developer
954,Dulcinea,teacher
955,Brena,singer
956,Sherrie,doctor
957,Selia,teacher
958,Sindee,teacher
959,Tamqrah,teacher
960,Genovera,police officer
961,Ulrike,firefighter
962,Vere,police officer
963,Meriel,worker
964,Nataline,developer
965,Ariela,worker
966,Ayn,worker
967,Tomasina,teacher
968,Marnia,firefighter
969,Petronia,police officer
970,Alexine,police officer
971,Joelly,worker
972,Tressa,singer
973,Dominga,teacher
974,Paule,doctor
975,Marcelline,police officer
976,Ginnie,developer
977,Regina,firefighter
978,Sherrie,worker
979,Sharai,teacher
980,Cathie,developer
981,Sibella,singer
982,Ninnetta,doctor
983,Nanete,teacher
984,Candi,doctor
985,Delilah,singer
986,Joleen,doctor
987,Odessa,teacher
988,Ginnie,police officer
989,Ileana,doctor
990,Helena,teacher
991,Kaia,police officer
992,Ayn,worker
993,Therine,worker
994,Kore,teacher
995,Alameda,firefighter
996,Corry,worker
997,Ezmeralda,police officer
998,Goldie,singer
999,Ardenia,worker